video_trans_eth_tx_uart_rx/.Xil/Vivado-12488-DESKTOP-B3RT09T/hw_ila_data_2/zip_work/waveform.vcd
$date
        2018-Apr-30 15:07:53
$end
$version
        Vivado v2017.4 (64-bit)
$end
$timescale
        1ps
$end
$scope module dut $end
$var reg 4 " PHY_TXD_d [3:0] $end
$var reg 8 & dout [7:0] $end
$var reg 1 . PHY_TX_CTRL_d $end
$var reg 1 / send_enale $end
$var reg 1 0 _TRIGGER $end
$var reg 1 1 _WINDOW $end
$var reg 1 2 _GAP $end
$upscope $end
$enddefinitions $end
#0
$dumpvars
b0 "
b11001101 &
0.
0/
00
11
02
$end
#132
b0 &
#133
b11001101 &
#4096
1/
10
#4097
b101 "
1.
#4112
b1101 "
#4113
b0 "
#4114
b11 "
#4115
b1100 "
#4116
b1001 "
#4117
b11 "
#4118
b10 "
#4119
b1110 "
#4120
b1 "
#4121
b1100 "
#4122
b1110 "
#4123
b1 "
#4124
b10 "
#4125
b0 "
#4126
b10 "
#4127
b1010 "
#4128
b1 "
#4129
b110 "
#4130
b0 "
#4131
b1110 "
#4132
b101 "
#4133
b1110 "
#4134
b0 "
#4135
b111 "
#4136
b1010 "
#4137
b1101 "
#4138
b1100 "
b1000 &
#4139
b1000 "
0/
#4140
b0 "
b0 &
#4142
b1000101 &
#4143
b101 "
#4144
b100 "
b0 &
#4145
b0 "
#4146
b101 &
#4147
b101 "
#4148
b0 "
b1000000 &
#4150
b100 "
b10010 &
#4151
b10 "
#4152
b1 "
b100000 &
#4153
b0 "
#4154
b10 "
b0 &
#4155
b0 "
#4158
b10000000 &
#4160
b1000 "
b10001 &
#4161
b1 "
#4162
b10100010 &
#4163
b10 "
#4164
b1010 "
b110111 &
#4165
b111 "
#4166
b11 "
b11000000 &
#4167
b0 "
#4168
b1100 "
b10101000 &
#4169
b1000 "
#4170
b1010 "
b0 &
#4171
b0 "
#4172
b11 &
#4173
b11 "
#4174
b0 "
b11000000 &
#4176
b1100 "
b10101000 &
#4177
b1000 "
#4178
b1010 "
b0 &
#4179
b0 "
#4180
b10 &
#4181
b10 "
#4182
b0 "
b11111 &
#4183
b1111 "
#4184
b1 "
b10010000 &
#4185
b0 "
#4186
b1001 "
b11111 &
#4187
b1111 "
#4188
b1 "
b10010000 &
#4189
b0 "
#4190
b1001 "
b101 &
#4191
b101 "
#4192
b0 "
b101100 &
#4193
b1100 "
#4194
b10 "
b11101000 &
#4195
b1000 "
#4196
b1110 "
b11010011 &
#4197
b11 "
#4198
b1101 "
b1100001 &
#4199
b1 "
#4200
b110 "
#4201
b1 "
#4202
b110 "
#4203
b1 "
#4204
b110 "
#4205
b1 "
#4206
b110 "
#4207
b1 "
#4208
b110 "
#4209
b1 "
#4210
b110 "
#4211
b1 "
#4212
b110 "
#4213
b1 "
#4214
b110 "
#4215
b1 "
#4216
b110 "
#4217
b1 "
#4218
b110 "
#4219
b1 "
#4220
b110 "
#4221
b1 "
#4222
b110 "
#4223
b1 "
#4224
b110 "
#4225
b1 "
#4226
b110 "
#4227
b1 "
#4228
b110 "
#4229
b1 "
#4230
b110 "
#4231
b1 "
#4232
b110 "
#4233
b1 "
#4234
b110 "
#4235
b1 "
#4236
b110 "
#4237
b1 "
#4238
b110 "
#4239
b1 "
#4240
b110 "
#4241
b1 "
#4242
b110 "
#4243
b1 "
#4244
b110 "
#4245
b1 "
#4246
b110 "
#4247
b1 "
#4248
b110 "
#4249
b1 "
#4250
b110 "
#4251
b1 "
#4252
b110 "
#4253
b1 "
#4254
b110 "
#4255
b1 "
#4256
b110 "
#4257
b1 "
#4258
b110 "
#4259
b1 "
#4260
b110 "
#4261
b1 "
#4262
b110 "
#4263
b1 "
#4264
b110 "
#4265
b1 "
#4266
b110 "
#4267
b1 "
#4268
b110 "
#4269
b1 "
#4270
b110 "
#4271
b1 "
#4272
b110 "
#4273
b1 "
#4274
b110 "
#4275
b1 "
#4276
b110 "
#4277
b1 "
#4278
b110 "
#4279
b1 "
#4280
b110 "
#4281
b1 "
#4282
b110 "
#4283
b1 "
#4284
b110 "
#4285
b1 "
#4286
b110 "
#4287
b1 "
#4288
b110 "
#4289
b1 "
#4290
b110 "
#4291
b1 "
#4292
b110 "
#4293
b1 "
#4294
b110 "
#4295
b1 "
#4296
b110 "
#4297
b1 "
#4298
b110 "
#4299
b1 "
#4300
b110 "
#4301
b1 "
#4302
b110 "
#4303
b1 "
#4304
b110 "
#4305
b1 "
#4306
b110 "
#4307
b1 "
#4308
b110 "
#4309
b1 "
#4310
b110 "
#4311
b1 "
#4312
b110 "
#4313
b1 "
#4314
b110 "
#4315
b1 "
#4316
b110 "
#4317
b1 "
#4318
b110 "
#4319
b1 "
#4320
b110 "
#4321
b1 "
#4322
b110 "
#4323
b1 "
#4324
b110 "
#4325
b1 "
#4326
b110 "
#4327
b1 "
#4328
b110 "
#4329
b1 "
#4330
b110 "
#4331
b1 "
#4332
b110 "
#4333
b1 "
#4334
b110 "
#4335
b1 "
#4336
b110 "
#4337
b1 "
#4338
b110 "
#4339
b1 "
#4340
b110 "
#4341
b1 "
#4342
b110 "
#4343
b1 "
#4344
b110 "
#4345
b1 "
#4346
b110 "
#4347
b1 "
#4348
b110 "
#4349
b1 "
#4350
b110 "
#4351
b1 "
#4352
b110 "
#4353
b1 "
#4354
b110 "
#4355
b1 "
#4356
b110 "
#4357
b1 "
#4358
b110 "
#4359
b1 "
#4360
b110 "
#4361
b1 "
#4362
b110 "
#4363
b1 "
#4364
b110 "
#4365
b1 "
#4366
b110 "
#4367
b1 "
#4368
b110 "
#4369
b1 "
#4370
b110 "
#4371
b1 "
#4372
b110 "
#4373
b1 "
#4374
b110 "
#4375
b1 "
#4376
b110 "
#4377
b1 "
#4378
b110 "
#4379
b1 "
#4380
b110 "
#4381
b1 "
#4382
b110 "
#4383
b1 "
#4384
b110 "
#4385
b1 "
#4386
b110 "
#4387
b1 "
#4388
b110 "
#4389
b1 "
#4390
b110 "
#4391
b1 "
#4392
b110 "
#4393
b1 "
#4394
b110 "
#4395
b1 "
#4396
b110 "
#4397
b1 "
#4398
b110 "
#4399
b1 "
#4400
b110 "
#4401
b1 "
#4402
b110 "
#4403
b1 "
#4404
b110 "
#4405
b1 "
#4406
b110 "
#4407
b1 "
#4408
b110 "
#4409
b1 "
#4410
b110 "
#4411
b1 "
#4412
b110 "
#4413
b1 "
#4414
b110 "
#4415
b1 "
#4416
b110 "
#4417
b1 "
#4418
b110 "
#4419
b1 "
#4420
b110 "
#4421
b1 "
#4422
b110 "
#4423
b1 "
#4424
b110 "
#4425
b1 "
#4426
b110 "
#4427
b1 "
#4428
b110 "
#4429
b1 "
#4430
b110 "
#4431
b1 "
#4432
b110 "
#4433
b1 "
#4434
b110 "
#4435
b1 "
#4436
b110 "
#4437
b1 "
#4438
b110 "
#4439
b1 "
#4440
b110 "
#4441
b1 "
#4442
b110 "
#4443
b1 "
#4444
b110 "
#4445
b1 "
#4446
b110 "
#4447
b1 "
#4448
b110 "
#4449
b1 "
#4450
b110 "
#4451
b1 "
#4452
b110 "
#4453
b1 "
#4454
b110 "
#4455
b1 "
#4456
b110 "
#4457
b1 "
#4458
b110 "
#4459
b1 "
#4460
b110 "
#4461
b1 "
#4462
b110 "
#4463
b1 "
#4464
b110 "
#4465
b1 "
#4466
b110 "
#4467
b1 "
#4468
b110 "
#4469
b1 "
#4470
b110 "
#4471
b1 "
#4472
b110 "
#4473
b1 "
#4474
b110 "
#4475
b1 "
#4476
b110 "
#4477
b1 "
#4478
b110 "
#4479
b1 "
#4480
b110 "
#4481
b1 "
#4482
b110 "
#4483
b1 "
#4484
b110 "
#4485
b1 "
#4486
b110 "
#4487
b1 "
#4488
b110 "
#4489
b1 "
#4490
b110 "
#4491
b1 "
#4492
b110 "
#4493
b1 "
#4494
b110 "
#4495
b1 "
#4496
b110 "
#4497
b1 "
#4498
b110 "
#4499
b1 "
#4500
b110 "
#4501
b1 "
#4502
b110 "
#4503
b1 "
#4504
b110 "
#4505
b1 "
#4506
b110 "
#4507
b1 "
#4508
b110 "
#4509
b1 "
#4510
b110 "
#4511
b1 "
#4512
b110 "
#4513
b1 "
#4514
b110 "
#4515
b1 "
#4516
b110 "
#4517
b1 "
#4518
b110 "
#4519
b1 "
#4520
b110 "
#4521
b1 "
#4522
b110 "
#4523
b1 "
#4524
b110 "
#4525
b1 "
#4526
b110 "
#4527
b1 "
#4528
b110 "
#4529
b1 "
#4530
b110 "
#4531
b1 "
#4532
b110 "
#4533
b1 "
#4534
b110 "
#4535
b1 "
#4536
b110 "
#4537
b1 "
#4538
b110 "
#4539
b1 "
#4540
b110 "
#4541
b1 "
#4542
b110 "
#4543
b1 "
#4544
b110 "
#4545
b1 "
#4546
b110 "
#4547
b1 "
#4548
b110 "
#4549
b1 "
#4550
b110 "
#4551
b1 "
#4552
b110 "
#4553
b1 "
#4554
b110 "
#4555
b1 "
#4556
b110 "
#4557
b1 "
#4558
b110 "
#4559
b1 "
#4560
b110 "
#4561
b1 "
#4562
b110 "
#4563
b1 "
#4564
b110 "
#4565
b1 "
#4566
b110 "
#4567
b1 "
#4568
b110 "
#4569
b1 "
#4570
b110 "
#4571
b1 "
#4572
b110 "
#4573
b1 "
#4574
b110 "
#4575
b1 "
#4576
b110 "
#4577
b1 "
#4578
b110 "
#4579
b1 "
#4580
b110 "
#4581
b1 "
#4582
b110 "
#4583
b1 "
#4584
b110 "
#4585
b1 "
#4586
b110 "
#4587
b1 "
#4588
b110 "
#4589
b1 "
#4590
b110 "
#4591
b1 "
#4592
b110 "
#4593
b1 "
#4594
b110 "
#4595
b1 "
#4596
b110 "
#4597
b1 "
#4598
b110 "
#4599
b1 "
#4600
b110 "
#4601
b1 "
#4602
b110 "
#4603
b1 "
#4604
b110 "
#4605
b1 "
#4606
b110 "
#4607
b1 "
#4608
b110 "
#4609
b1 "
#4610
b110 "
#4611
b1 "
#4612
b110 "
#4613
b1 "
#4614
b110 "
#4615
b1 "
#4616
b110 "
#4617
b1 "
#4618
b110 "
#4619
b1 "
#4620
b110 "
#4621
b1 "
#4622
b110 "
#4623
b1 "
#4624
b110 "
#4625
b1 "
#4626
b110 "
#4627
b1 "
#4628
b110 "
#4629
b1 "
#4630
b110 "
#4631
b1 "
#4632
b110 "
#4633
b1 "
#4634
b110 "
#4635
b1 "
#4636
b110 "
#4637
b1 "
#4638
b110 "
#4639
b1 "
#4640
b110 "
#4641
b1 "
#4642
b110 "
#4643
b1 "
#4644
b110 "
#4645
b1 "
#4646
b110 "
#4647
b1 "
#4648
b110 "
#4649
b1 "
#4650
b110 "
#4651
b1 "
#4652
b110 "
#4653
b1 "
#4654
b110 "
#4655
b1 "
#4656
b110 "
#4657
b1 "
#4658
b110 "
#4659
b1 "
#4660
b110 "
#4661
b1 "
#4662
b110 "
#4663
b1 "
#4664
b110 "
#4665
b1 "
#4666
b110 "
#4667
b1 "
#4668
b110 "
#4669
b1 "
#4670
b110 "
#4671
b1 "
#4672
b110 "
#4673
b1 "
#4674
b110 "
#4675
b1 "
#4676
b110 "
#4677
b1 "
#4678
b110 "
#4679
b1 "
#4680
b110 "
#4681
b1 "
#4682
b110 "
#4683
b1 "
#4684
b110 "
#4685
b1 "
#4686
b110 "
#4687
b1 "
#4688
b110 "
#4689
b1 "
#4690
b110 "
#4691
b1 "
#4692
b110 "
#4693
b1 "
#4694
b110 "
#4695
b1 "
#4696
b110 "
#4697
b1 "
#4698
b110 "
#4699
b1 "
#4700
b110 "
#4701
b1 "
#4702
b110 "
#4703
b1 "
#4704
b110 "
#4705
b1 "
#4706
b110 "
#4707
b1 "
#4708
b110 "
#4709
b1 "
#4710
b110 "
#4711
b1 "
#4712
b110 "
#4713
b1 "
#4714
b110 "
#4715
b1 "
#4716
b110 "
#4717
b1 "
#4718
b110 "
#4719
b1 "
#4720
b110 "
#4721
b1 "
#4722
b110 "
#4723
b1 "
#4724
b110 "
#4725
b1 "
#4726
b110 "
#4727
b1 "
#4728
b110 "
#4729
b1 "
#4730
b110 "
#4731
b1 "
#4732
b110 "
#4733
b1 "
#4734
b110 "
#4735
b1 "
#4736
b110 "
#4737
b1 "
#4738
b110 "
#4739
b1 "
#4740
b110 "
#4741
b1 "
#4742
b110 "
#4743
b1 "
#4744
b110 "
#4745
b1 "
#4746
b110 "
#4747
b1 "
#4748
b110 "
#4749
b1 "
#4750
b110 "
#4751
b1 "
#4752
b110 "
#4753
b1 "
#4754
b110 "
#4755
b1 "
#4756
b110 "
#4757
b1 "
#4758
b110 "
#4759
b1 "
#4760
b110 "
#4761
b1 "
#4762
b110 "
#4763
b1 "
#4764
b110 "
#4765
b1 "
#4766
b110 "
#4767
b1 "
#4768
b110 "
#4769
b1 "
#4770
b110 "
#4771
b1 "
#4772
b110 "
#4773
b1 "
#4774
b110 "
#4775
b1 "
#4776
b110 "
#4777
b1 "
#4778
b110 "
#4779
b1 "
#4780
b110 "
#4781
b1 "
#4782
b110 "
#4783
b1 "
#4784
b110 "
#4785
b1 "
#4786
b110 "
#4787
b1 "
#4788
b110 "
#4789
b1 "
#4790
b110 "
#4791
b1 "
#4792
b110 "
#4793
b1 "
#4794
b110 "
#4795
b1 "
#4796
b110 "
#4797
b1 "
#4798
b110 "
#4799
b1 "
#4800
b110 "
#4801
b1 "
#4802
b110 "
#4803
b1 "
#4804
b110 "
#4805
b1 "
#4806
b110 "
#4807
b1 "
#4808
b110 "
#4809
b1 "
#4810
b110 "
#4811
b1 "
#4812
b110 "
#4813
b1 "
#4814
b110 "
#4815
b1 "
#4816
b110 "
#4817
b1 "
#4818
b110 "
#4819
b1 "
#4820
b110 "
#4821
b1 "
#4822
b110 "
#4823
b1 "
#4824
b110 "
#4825
b1 "
#4826
b110 "
#4827
b1 "
#4828
b110 "
#4829
b1 "
#4830
b110 "
#4831
b1 "
#4832
b110 "
#4833
b1 "
#4834
b110 "
#4835
b1 "
#4836
b110 "
#4837
b1 "
#4838
b110 "
#4839
b1 "
#4840
b110 "
#4841
b1 "
#4842
b110 "
#4843
b1 "
#4844
b110 "
#4845
b1 "
#4846
b110 "
#4847
b1 "
#4848
b110 "
#4849
b1 "
#4850
b110 "
#4851
b1 "
#4852
b110 "
#4853
b1 "
#4854
b110 "
#4855
b1 "
#4856
b110 "
#4857
b1 "
#4858
b110 "
#4859
b1 "
#4860
b110 "
#4861
b1 "
#4862
b110 "
#4863
b1 "
#4864
b110 "
#4865
b1 "
#4866
b110 "
#4867
b1 "
#4868
b110 "
#4869
b1 "
#4870
b110 "
#4871
b1 "
#4872
b110 "
#4873
b1 "
#4874
b110 "
#4875
b1 "
#4876
b110 "
#4877
b1 "
#4878
b110 "
#4879
b1 "
#4880
b110 "
#4881
b1 "
#4882
b110 "
#4883
b1 "
#4884
b110 "
#4885
b1 "
#4886
b110 "
#4887
b1 "
#4888
b110 "
#4889
b1 "
#4890
b110 "
#4891
b1 "
#4892
b110 "
#4893
b1 "
#4894
b110 "
#4895
b1 "
#4896
b110 "
#4897
b1 "
#4898
b110 "
#4899
b1 "
#4900
b110 "
#4901
b1 "
#4902
b110 "
#4903
b1 "
#4904
b110 "
#4905
b1 "
#4906
b110 "
#4907
b1 "
#4908
b110 "
#4909
b1 "
#4910
b110 "
#4911
b1 "
#4912
b110 "
#4913
b1 "
#4914
b110 "
#4915
b1 "
#4916
b110 "
#4917
b1 "
#4918
b110 "
#4919
b1 "
#4920
b110 "
#4921
b1 "
#4922
b110 "
#4923
b1 "
#4924
b110 "
#4925
b1 "
#4926
b110 "
#4927
b1 "
#4928
b110 "
#4929
b1 "
#4930
b110 "
#4931
b1 "
#4932
b110 "
#4933
b1 "
#4934
b110 "
#4935
b1 "
#4936
b110 "
#4937
b1 "
#4938
b110 "
#4939
b1 "
#4940
b110 "
#4941
b1 "
#4942
b110 "
#4943
b1 "
#4944
b110 "
#4945
b1 "
#4946
b110 "
#4947
b1 "
#4948
b110 "
#4949
b1 "
#4950
b110 "
#4951
b1 "
#4952
b110 "
#4953
b1 "
#4954
b110 "
#4955
b1 "
#4956
b110 "
#4957
b1 "
#4958
b110 "
#4959
b1 "
#4960
b110 "
#4961
b1 "
#4962
b110 "
#4963
b1 "
#4964
b110 "
#4965
b1 "
#4966
b110 "
#4967
b1 "
#4968
b110 "
#4969
b1 "
#4970
b110 "
#4971
b1 "
#4972
b110 "
#4973
b1 "
#4974
b110 "
#4975
b1 "
#4976
b110 "
#4977
b1 "
#4978
b110 "
#4979
b1 "
#4980
b110 "
#4981
b1 "
#4982
b110 "
#4983
b1 "
#4984
b110 "
#4985
b1 "
#4986
b110 "
#4987
b1 "
#4988
b110 "
#4989
b1 "
#4990
b110 "
#4991
b1 "
#4992
b110 "
#4993
b1 "
#4994
b110 "
#4995
b1 "
#4996
b110 "
#4997
b1 "
#4998
b110 "
#4999
b1 "
#5000
b110 "
#5001
b1 "
#5002
b110 "
#5003
b1 "
#5004
b110 "
#5005
b1 "
#5006
b110 "
#5007
b1 "
#5008
b110 "
#5009
b1 "
#5010
b110 "
#5011
b1 "
#5012
b110 "
#5013
b1 "
#5014
b110 "
#5015
b1 "
#5016
b110 "
#5017
b1 "
#5018
b110 "
#5019
b1 "
#5020
b110 "
#5021
b1 "
#5022
b110 "
#5023
b1 "
#5024
b110 "
#5025
b1 "
#5026
b110 "
#5027
b1 "
#5028
b110 "
#5029
b1 "
#5030
b110 "
#5031
b1 "
#5032
b110 "
#5033
b1 "
#5034
b110 "
#5035
b1 "
#5036
b110 "
#5037
b1 "
#5038
b110 "
#5039
b1 "
#5040
b110 "
#5041
b1 "
#5042
b110 "
#5043
b1 "
#5044
b110 "
#5045
b1 "
#5046
b110 "
#5047
b1 "
#5048
b110 "
#5049
b1 "
#5050
b110 "
#5051
b1 "
#5052
b110 "
#5053
b1 "
#5054
b110 "
#5055
b1 "
#5056
b110 "
#5057
b1 "
#5058
b110 "
#5059
b1 "
#5060
b110 "
#5061
b1 "
#5062
b110 "
#5063
b1 "
#5064
b110 "
#5065
b1 "
#5066
b110 "
#5067
b1 "
#5068
b110 "
#5069
b1 "
#5070
b110 "
#5071
b1 "
#5072
b110 "
#5073
b1 "
#5074
b110 "
#5075
b1 "
#5076
b110 "
#5077
b1 "
#5078
b110 "
#5079
b1 "
#5080
b110 "
#5081
b1 "
#5082
b110 "
#5083
b1 "
#5084
b110 "
#5085
b1 "
#5086
b110 "
#5087
b1 "
#5088
b110 "
#5089
b1 "
#5090
b110 "
#5091
b1 "
#5092
b110 "
#5093
b1 "
#5094
b110 "
#5095
b1 "
#5096
b110 "
#5097
b1 "
#5098
b110 "
#5099
b1 "
#5100
b110 "
#5101
b1 "
#5102
b110 "
#5103
b1 "
#5104
b110 "
#5105
b1 "
#5106
b110 "
#5107
b1 "
#5108
b110 "
#5109
b1 "
#5110
b110 "
#5111
b1 "
#5112
b110 "
#5113
b1 "
#5114
b110 "
#5115
b1 "
#5116
b110 "
#5117
b1 "
#5118
b110 "
#5119
b1 "
#5120
b110 "
#5121
b1 "
#5122
b110 "
#5123
b1 "
#5124
b110 "
#5125
b1 "
#5126
b110 "
#5127
b1 "
#5128
b110 "
#5129
b1 "
#5130
b110 "
#5131
b1 "
#5132
b110 "
#5133
b1 "
#5134
b110 "
#5135
b1 "
#5136
b110 "
#5137
b1 "
#5138
b110 "
#5139
b1 "
#5140
b110 "
#5141
b1 "
#5142
b110 "
#5143
b1 "
#5144
b110 "
#5145
b1 "
#5146
b110 "
#5147
b1 "
#5148
b110 "
#5149
b1 "
#5150
b110 "
#5151
b1 "
#5152
b110 "
#5153
b1 "
#5154
b110 "
#5155
b1 "
#5156
b110 "
#5157
b1 "
#5158
b110 "
#5159
b1 "
#5160
b110 "
#5161
b1 "
#5162
b110 "
#5163
b1 "
#5164
b110 "
#5165
b1 "
#5166
b110 "
#5167
b1 "
#5168
b110 "
#5169
b1 "
#5170
b110 "
#5171
b1 "
#5172
b110 "
#5173
b1 "
#5174
b110 "
#5175
b1 "
#5176
b110 "
#5177
b1 "
#5178
b110 "
#5179
b1 "
#5180
b110 "
#5181
b1 "
#5182
b110 "
#5183
b1 "
#5184
b110 "
#5185
b1 "
#5186
b110 "
#5187
b1 "
#5188
b110 "
#5189
b1 "
#5190
b110 "
#5191
b1 "
#5192
b110 "
#5193
b1 "
#5194
b110 "
#5195
b1 "
#5196
b110 "
#5197
b1 "
#5198
b110 "
#5199
b1 "
#5200
b110 "
#5201
b1 "
#5202
b110 "
#5203
b1 "
#5204
b110 "
#5205
b1 "
#5206
b110 "
#5207
b1 "
#5208
b110 "
#5209
b1 "
#5210
b110 "
#5211
b1 "
#5212
b110 "
#5213
b1 "
#5214
b110 "
#5215
b1 "
#5216
b110 "
#5217
b1 "
#5218
b110 "
#5219
b1 "
#5220
b110 "
#5221
b1 "
#5222
b110 "
#5223
b1 "
#5224
b110 "
#5225
b1 "
#5226
b110 "
#5227
b1 "
#5228
b110 "
#5229
b1 "
#5230
b110 "
#5231
b1 "
#5232
b110 "
#5233
b1 "
#5234
b110 "
#5235
b1 "
#5236
b110 "
#5237
b1 "
#5238
b110 "
#5239
b1 "
#5240
b110 "
#5241
b1 "
#5242
b110 "
#5243
b1 "
#5244
b110 "
#5245
b1 "
#5246
b110 "
#5247
b1 "
#5248
b110 "
#5249
b1 "
#5250
b110 "
#5251
b1 "
#5252
b110 "
#5253
b1 "
#5254
b110 "
#5255
b1 "
#5256
b110 "
#5257
b1 "
#5258
b110 "
#5259
b1 "
#5260
b110 "
#5261
b1 "
#5262
b110 "
#5263
b1 "
#5264
b110 "
#5265
b1 "
#5266
b110 "
#5267
b1 "
#5268
b110 "
#5269
b1 "
#5270
b110 "
#5271
b1 "
#5272
b110 "
#5273
b1 "
#5274
b110 "
#5275
b1 "
#5276
b110 "
#5277
b1 "
#5278
b110 "
#5279
b1 "
#5280
b110 "
#5281
b1 "
#5282
b110 "
#5283
b1 "
#5284
b110 "
#5285
b1 "
#5286
b110 "
#5287
b1 "
#5288
b110 "
#5289
b1 "
#5290
b110 "
#5291
b1 "
#5292
b110 "
#5293
b1 "
#5294
b110 "
#5295
b1 "
#5296
b110 "
#5297
b1 "
#5298
b110 "
#5299
b1 "
#5300
b110 "
#5301
b1 "
#5302
b110 "
#5303
b1 "
#5304
b110 "
#5305
b1 "
#5306
b110 "
#5307
b1 "
#5308
b110 "
#5309
b1 "
#5310
b110 "
#5311
b1 "
#5312
b110 "
#5313
b1 "
#5314
b110 "
#5315
b1 "
#5316
b110 "
#5317
b1 "
#5318
b110 "
#5319
b1 "
#5320
b110 "
#5321
b1 "
#5322
b110 "
#5323
b1 "
#5324
b110 "
#5325
b1 "
#5326
b110 "
#5327
b1 "
#5328
b110 "
#5329
b1 "
#5330
b110 "
#5331
b1 "
#5332
b110 "
#5333
b1 "
#5334
b110 "
#5335
b1 "
#5336
b110 "
#5337
b1 "
#5338
b110 "
#5339
b1 "
#5340
b110 "
#5341
b1 "
#5342
b110 "
#5343
b1 "
#5344
b110 "
#5345
b1 "
#5346
b110 "
#5347
b1 "
#5348
b110 "
#5349
b1 "
#5350
b110 "
#5351
b1 "
#5352
b110 "
#5353
b1 "
#5354
b110 "
#5355
b1 "
#5356
b110 "
#5357
b1 "
#5358
b110 "
#5359
b1 "
#5360
b110 "
#5361
b1 "
#5362
b110 "
#5363
b1 "
#5364
b110 "
#5365
b1 "
#5366
b110 "
#5367
b1 "
#5368
b110 "
#5369
b1 "
#5370
b110 "
#5371
b1 "
#5372
b110 "
#5373
b1 "
#5374
b110 "
#5375
b1 "
#5376
b110 "
#5377
b1 "
#5378
b110 "
#5379
b1 "
#5380
b110 "
#5381
b1 "
#5382
b110 "
#5383
b1 "
#5384
b110 "
#5385
b1 "
#5386
b110 "
#5387
b1 "
#5388
b110 "
#5389
b1 "
#5390
b110 "
#5391
b1 "
#5392
b110 "
#5393
b1 "
#5394
b110 "
#5395
b1 "
#5396
b110 "
#5397
b1 "
#5398
b110 "
#5399
b1 "
#5400
b110 "
#5401
b1 "
#5402
b110 "
#5403
b1 "
#5404
b110 "
#5405
b1 "
#5406
b110 "
#5407
b1 "
#5408
b110 "
#5409
b1 "
#5410
b110 "
#5411
b1 "
#5412
b110 "
#5413
b1 "
#5414
b110 "
#5415
b1 "
#5416
b110 "
#5417
b1 "
#5418
b110 "
#5419
b1 "
#5420
b110 "
#5421
b1 "
#5422
b110 "
#5423
b1 "
#5424
b110 "
#5425
b1 "
#5426
b110 "
#5427
b1 "
#5428
b110 "
#5429
b1 "
#5430
b110 "
#5431
b1 "
#5432
b110 "
#5433
b1 "
#5434
b110 "
#5435
b1 "
#5436
b110 "
#5437
b1 "
#5438
b110 "
#5439
b1 "
#5440
b110 "
#5441
b1 "
#5442
b110 "
#5443
b1 "
#5444
b110 "
#5445
b1 "
#5446
b110 "
#5447
b1 "
#5448
b110 "
#5449
b1 "
#5450
b110 "
#5451
b1 "
#5452
b110 "
#5453
b1 "
#5454
b110 "
#5455
b1 "
#5456
b110 "
#5457
b1 "
#5458
b110 "
#5459
b1 "
#5460
b110 "
#5461
b1 "
#5462
b110 "
#5463
b1 "
#5464
b110 "
#5465
b1 "
#5466
b110 "
#5467
b1 "
#5468
b110 "
#5469
b1 "
#5470
b110 "
#5471
b1 "
#5472
b110 "
#5473
b1 "
#5474
b110 "
#5475
b1 "
#5476
b110 "
#5477
b1 "
#5478
b110 "
#5479
b1 "
#5480
b110 "
#5481
b1 "
#5482
b110 "
#5483
b1 "
#5484
b110 "
#5485
b1 "
#5486
b110 "
#5487
b1 "
#5488
b110 "
#5489
b1 "
#5490
b110 "
#5491
b1 "
#5492
b110 "
#5493
b1 "
#5494
b110 "
#5495
b1 "
#5496
b110 "
#5497
b1 "
#5498
b110 "
#5499
b1 "
#5500
b110 "
#5501
b1 "
#5502
b110 "
#5503
b1 "
#5504
b110 "
#5505
b1 "
#5506
b110 "
#5507
b1 "
#5508
b110 "
#5509
b1 "
#5510
b110 "
#5511
b1 "
#5512
b110 "
#5513
b1 "
#5514
b110 "
#5515
b1 "
#5516
b110 "
#5517
b1 "
#5518
b110 "
#5519
b1 "
#5520
b110 "
#5521
b1 "
#5522
b110 "
#5523
b1 "
#5524
b110 "
#5525
b1 "
#5526
b110 "
#5527
b1 "
#5528
b110 "
#5529
b1 "
#5530
b110 "
#5531
b1 "
#5532
b110 "
#5533
b1 "
#5534
b110 "
#5535
b1 "
#5536
b110 "
#5537
b1 "
#5538
b110 "
#5539
b1 "
#5540
b110 "
#5541
b1 "
#5542
b110 "
#5543
b1 "
#5544
b110 "
#5545
b1 "
#5546
b110 "
#5547
b1 "
#5548
b110 "
#5549
b1 "
#5550
b110 "
#5551
b1 "
#5552
b110 "
#5553
b1 "
#5554
b110 "
#5555
b1 "
#5556
b110 "
#5557
b1 "
#5558
b110 "
#5559
b1 "
#5560
b110 "
#5561
b1 "
#5562
b110 "
#5563
b1 "
#5564
b110 "
#5565
b1 "
#5566
b110 "
#5567
b1 "
#5568
b110 "
#5569
b1 "
#5570
b110 "
#5571
b1 "
#5572
b110 "
#5573
b1 "
#5574
b110 "
#5575
b1 "
#5576
b110 "
#5577
b1 "
#5578
b110 "
#5579
b1 "
#5580
b110 "
#5581
b1 "
#5582
b110 "
#5583
b1 "
#5584
b110 "
#5585
b1 "
#5586
b110 "
#5587
b1 "
#5588
b110 "
#5589
b1 "
#5590
b110 "
#5591
b1 "
#5592
b110 "
#5593
b1 "
#5594
b110 "
#5595
b1 "
#5596
b110 "
#5597
b1 "
#5598
b110 "
#5599
b1 "
#5600
b110 "
#5601
b1 "
#5602
b110 "
#5603
b1 "
#5604
b110 "
#5605
b1 "
#5606
b110 "
#5607
b1 "
#5608
b110 "
#5609
b1 "
#5610
b110 "
#5611
b1 "
#5612
b110 "
#5613
b1 "
#5614
b110 "
#5615
b1 "
#5616
b110 "
#5617
b1 "
#5618
b110 "
#5619
b1 "
#5620
b110 "
#5621
b1 "
#5622
b110 "
#5623
b1 "
#5624
b110 "
#5625
b1 "
#5626
b110 "
#5627
b1 "
#5628
b110 "
#5629
b1 "
#5630
b110 "
#5631
b1 "
#5632
b110 "
#5633
b1 "
#5634
b110 "
#5635
b1 "
#5636
b110 "
#5637
b1 "
#5638
b110 "
#5639
b1 "
#5640
b110 "
#5641
b1 "
#5642
b110 "
#5643
b1 "
#5644
b110 "
#5645
b1 "
#5646
b110 "
#5647
b1 "
#5648
b110 "
#5649
b1 "
#5650
b110 "
#5651
b1 "
#5652
b110 "
#5653
b1 "
#5654
b110 "
#5655
b1 "
#5656
b110 "
#5657
b1 "
#5658
b110 "
#5659
b1 "
#5660
b110 "
#5661
b1 "
#5662
b110 "
#5663
b1 "
#5664
b110 "
#5665
b1 "
#5666
b110 "
#5667
b1 "
#5668
b110 "
#5669
b1 "
#5670
b110 "
#5671
b1 "
#5672
b110 "
#5673
b1 "
#5674
b110 "
#5675
b1 "
#5676
b110 "
#5677
b1 "
#5678
b110 "
#5679
b1 "
#5680
b110 "
#5681
b1 "
#5682
b110 "
#5683
b1 "
#5684
b110 "
#5685
b1 "
#5686
b110 "
#5687
b1 "
#5688
b110 "
#5689
b1 "
#5690
b110 "
#5691
b1 "
#5692
b110 "
#5693
b1 "
#5694
b110 "
#5695
b1 "
#5696
b110 "
#5697
b1 "
#5698
b110 "
#5699
b1 "
#5700
b110 "
#5701
b1 "
#5702
b110 "
#5703
b1 "
#5704
b110 "
#5705
b1 "
#5706
b110 "
#5707
b1 "
#5708
b110 "
#5709
b1 "
#5710
b110 "
#5711
b1 "
#5712
b110 "
#5713
b1 "
#5714
b110 "
#5715
b1 "
#5716
b110 "
#5717
b1 "
#5718
b110 "
#5719
b1 "
#5720
b110 "
#5721
b1 "
#5722
b110 "
