video_trans_eth_tx_uart_rx/.Xil/Vivado-4172-DESKTOP-B3RT09T/hw_ila_data_1/zip_work/waveform.vcd
$date
        2018-Apr-27 16:31:21
$end
$version
        Vivado v2017.4 (64-bit)
$end
$timescale
        1ps
$end
$scope module dut $end
$var reg 8 " din [7:0] $end
$var reg 1 * rx_done_signal $end
$var reg 1 + _TRIGGER $end
$var reg 1 , _WINDOW $end
$var reg 1 - _GAP $end
$upscope $end
$enddefinitions $end
#0
$dumpvars
b0 "
0*
0+
1,
0-
$end
#32680
b1000 "
#32768
1*
1+
#32769
b0 "
0*
#33017
1*
#33018
0*
#33104
b1000000 "
#33204
b1000100 "
#33254
b1000101 "
#33267
1*
#33268
b0 "
0*
#33517
1*
#33518
0*
#33704
b100 "
#33754
b101 "
#33767
1*
#33768
b0 "
0*
#33854
b1000000 "
#34017
1*
#34018
b0 "
0*
#34179
b1000 "
#34204
b1100 "
#34254
b1101 "
#34267
1*
#34268
b0 "
0*
#34329
b10000000 "
#34479
b10000010 "
#34504
b10000011 "
#34517
1*
#34518
b0 "
0*
#34767
1*
#34768
0*
#35017
1*
#35018
0*
#35079
b10000000 "
#35267
1*
#35268
b0 "
0*
#35404
b10000 "
#35504
b10001 "
#35517
1*
#35518
b0 "
0*
#35579
b10000000 "
#35629
b10100000 "
#35704
b10100100 "
#35729
b10100110 "
#35767
1*
#35768
b0 "
0*
#35829
b10000000 "
#35854
b11000000 "
#35904
b11010000 "
#35954
b11010100 "
#36017
1*
#36018
b0 "
0*
#36079
b10000000 "
#36104
b11000000 "
#36267
1*
#36268
b0 "
0*
#36329
b10000000 "
#36379
b10100000 "
#36429
b10101000 "
#36517
1*
#36518
b0 "
0*
#36767
1*
#36768
0*
#36979
b10 "
#37004
b11 "
#37017
1*
#37018
b0 "
0*
#37079
b10000000 "
#37104
b11000000 "
#37267
1*
#37268
b0 "
0*
#37329
b10000000 "
#37379
b10100000 "
#37429
b10101000 "
#37517
1*
#37518
b0 "
0*
#37767
1*
#37768
0*
#37979
b10 "
#38017
1*
#38018
b0 "
0*
#38129
b100000 "
#38267
1*
#38268
b0 "
0*
#38379
b100000 "
#38429
b101000 "
#38479
b101010 "
#38517
1*
#38518
b0 "
0*
#38629
b100000 "
#38767
1*
#38768
b0 "
0*
#38879
b100000 "
#38929
b101000 "
#38979
b101010 "
#39017
1*
#39018
b0 "
0*
#39204
b100 "
#39254
b101 "
#39267
1*
#39268
b0 "
0*
#39379
b100000 "
#39429
b101000 "
#39454
b101100 "
#39517
1*
#39518
b0 "
0*
#39579
b10000000 "
#39604
b11000000 "
#39629
b11100000 "
#39704
b11100100 "
#39729
b11100110 "
#39754
b11100111 "
#39767
1*
#39768
b0 "
0*
#39829
b10000000 "
#39904
b10010000 "
#39929
b10011000 "
#39954
b10011100 "
#39979
b10011110 "
#40004
b10011111 "
#40017
1*
#40018
b0 "
0*
#40104
b1000000 "
#40129
b1100000 "
#40254
b1100001 "
#40267
1*
#40268
b0 "
0*
#40354
b1000000 "
#40379
b1100000 "
#40504
b1100001 "
#40517
1*
#40518
b0 "
0*
#40604
b1000000 "
#40629
b1100000 "
#40754
b1100001 "
#40767
1*
#40768
b0 "
0*
#40854
b1000000 "
#40879
b1100000 "
#41004
b1100001 "
#41017
1*
#41018
b0 "
0*
#41104
b1000000 "
#41129
b1100000 "
#41254
b1100001 "
#41267
1*
#41268
b0 "
0*
#41354
b1000000 "
#41379
b1100000 "
#41504
b1100001 "
#41517
1*
#41518
b0 "
0*
#41604
b1000000 "
#41629
b1100000 "
#41754
b1100001 "
#41767
1*
#41768
b0 "
0*
#41854
b1000000 "
#41879
b1100000 "
#42004
b1100001 "
#42017
1*
#42018
b0 "
0*
#42104
b1000000 "
#42129
b1100000 "
#42254
b1100001 "
#42267
1*
#42268
b0 "
0*
#42354
b1000000 "
#42379
b1100000 "
#42504
b1100001 "
#42517
1*
#42518
b0 "
0*
#42604
b1000000 "
#42629
b1100000 "
#42754
b1100001 "
#42767
1*
#42768
b0 "
0*
#42854
b1000000 "
#42879
b1100000 "
#43004
b1100001 "
#43017
1*
#43018
b0 "
0*
#43104
b1000000 "
#43129
b1100000 "
#43254
b1100001 "
#43267
1*
#43268
b0 "
0*
#43354
b1000000 "
#43379
b1100000 "
#43504
b1100001 "
#43517
1*
#43518
b0 "
0*
#43604
b1000000 "
#43629
b1100000 "
#43754
b1100001 "
#43767
1*
#43768
b0 "
0*
#43854
b1000000 "
#43879
b1100000 "
#44004
b1100001 "
#44017
1*
#44018
b0 "
0*
#44104
b1000000 "
#44129
b1100000 "
#44254
b1100001 "
#44267
1*
#44268
b0 "
0*
#44354
b1000000 "
#44379
b1100000 "
#44504
b1100001 "
#44517
1*
#44518
b0 "
0*
#44604
b1000000 "
#44629
b1100000 "
#44754
b1100001 "
#44767
1*
#44768
b0 "
0*
#44854
b1000000 "
#44879
b1100000 "
#45004
b1100001 "
#45017
1*
#45018
b0 "
0*
#45104
b1000000 "
#45129
b1100000 "
#45254
b1100001 "
#45267
1*
#45268
b0 "
0*
#45354
b1000000 "
#45379
b1100000 "
#45504
b1100001 "
#45517
1*
#45518
b0 "
0*
#45604
b1000000 "
#45629
b1100000 "
#45754
b1100001 "
#45767
1*
#45768
b0 "
0*
#45854
b1000000 "
#45879
b1100000 "
#46004
b1100001 "
#46017
1*
#46018
b0 "
0*
#46104
b1000000 "
#46129
b1100000 "
#46254
b1100001 "
#46267
1*
#46268
b0 "
0*
#46354
b1000000 "
#46379
b1100000 "
#46504
b1100001 "
#46517
1*
#46518
b0 "
0*
#46604
b1000000 "
#46629
b1100000 "
#46754
b1100001 "
#46767
1*
#46768
b0 "
0*
#46854
b1000000 "
#46879
b1100000 "
#47004
b1100001 "
#47017
1*
#47018
b0 "
0*
#47104
b1000000 "
#47129
b1100000 "
#47254
b1100001 "
#47267
1*
#47268
b0 "
0*
#47354
b1000000 "
#47379
b1100000 "
#47504
b1100001 "
#47517
1*
#47518
b0 "
0*
#47604
b1000000 "
#47629
b1100000 "
#47754
b1100001 "
#47767
1*
#47768
b0 "
0*
#47854
b1000000 "
#47879
b1100000 "
#48004
b1100001 "
#48017
1*
#48018
b0 "
0*
#48104
b1000000 "
#48129
b1100000 "
#48254
b1100001 "
#48267
1*
#48268
b0 "
0*
#48354
b1000000 "
#48379
b1100000 "
#48504
b1100001 "
#48517
1*
#48518
b0 "
0*
#48604
b1000000 "
#48629
b1100000 "
#48754
b1100001 "
#48767
1*
#48768
b0 "
0*
#48854
b1000000 "
#48879
b1100000 "
#49004
b1100001 "
#49017
1*
#49018
b0 "
0*
#49104
b1000000 "
#49129
b1100000 "
#49254
b1100001 "
#49267
1*
#49268
b0 "
0*
#49354
b1000000 "
#49379
b1100000 "
#49504
b1100001 "
#49517
1*
#49518
b0 "
0*
#49604
b1000000 "
#49629
b1100000 "
#49754
b1100001 "
#49767
1*
#49768
b0 "
0*
#49854
b1000000 "
#49879
b1100000 "
#50004
b1100001 "
#50017
1*
#50018
b0 "
0*
#50104
b1000000 "
#50129
b1100000 "
#50254
b1100001 "
#50267
1*
#50268
b0 "
0*
#50354
b1000000 "
#50379
b1100000 "
#50504
b1100001 "
#50517
1*
#50518
b0 "
0*
#50604
b1000000 "
#50629
b1100000 "
#50754
b1100001 "
#50767
1*
#50768
b0 "
0*
#50854
b1000000 "
#50879
b1100000 "
#51004
b1100001 "
#51017
1*
#51018
b0 "
0*
#51104
b1000000 "
#51129
b1100000 "
#51254
b1100001 "
#51267
1*
#51268
b0 "
0*
#51354
b1000000 "
#51379
b1100000 "
#51504
b1100001 "
#51517
1*
#51518
b0 "
0*
#51604
b1000000 "
#51629
b1100000 "
#51754
b1100001 "
#51767
1*
#51768
b0 "
0*
#51854
b1000000 "
#51879
b1100000 "
#52004
b1100001 "
#52017
1*
#52018
b0 "
0*
#52104
b1000000 "
#52129
b1100000 "
#52254
b1100001 "
#52267
1*
#52268
b0 "
0*
#52354
b1000000 "
#52379
b1100000 "
#52504
b1100001 "
#52517
1*
#52518
b0 "
0*
#52604
b1000000 "
#52629
b1100000 "
#52754
b1100001 "
#52767
1*
#52768
b0 "
0*
#52854
b1000000 "
#52879
b1100000 "
#53004
b1100001 "
#53017
1*
#53018
b0 "
0*
#53104
b1000000 "
#53129
b1100000 "
#53254
b1100001 "
#53267
1*
#53268
b0 "
0*
#53354
b1000000 "
#53379
b1100000 "
#53504
b1100001 "
#53517
1*
#53518
b0 "
0*
#53604
b1000000 "
#53629
b1100000 "
#53754
b1100001 "
#53767
1*
#53768
b0 "
0*
#53854
b1000000 "
#53879
b1100000 "
#54004
b1100001 "
#54017
1*
#54018
b0 "
0*
#54104
b1000000 "
#54129
b1100000 "
#54254
b1100001 "
#54267
1*
#54268
b0 "
0*
#54354
b1000000 "
#54379
b1100000 "
#54504
b1100001 "
#54517
1*
#54518
b0 "
0*
#54604
b1000000 "
#54629
b1100000 "
#54754
b1100001 "
#54767
1*
#54768
b0 "
0*
#54854
b1000000 "
#54879
b1100000 "
#55004
b1100001 "
#55017
1*
#55018
b0 "
0*
#55104
b1000000 "
#55129
b1100000 "
#55254
b1100001 "
#55267
1*
#55268
b0 "
0*
#55354
b1000000 "
#55379
b1100000 "
#55504
b1100001 "
#55517
1*
#55518
b0 "
0*
#55604
b1000000 "
#55629
b1100000 "
#55754
b1100001 "
#55767
1*
#55768
b0 "
0*
#55854
b1000000 "
#55879
b1100000 "
#56004
b1100001 "
#56017
1*
#56018
b0 "
0*
#56104
b1000000 "
#56129
b1100000 "
#56254
b1100001 "
#56267
1*
#56268
b0 "
0*
#56354
b1000000 "
#56379
b1100000 "
#56504
b1100001 "
#56517
1*
#56518
b0 "
0*
#56604
b1000000 "
#56629
b1100000 "
#56754
b1100001 "
#56767
1*
#56768
b0 "
0*
#56854
b1000000 "
#56879
b1100000 "
#57004
b1100001 "
#57017
1*
#57018
b0 "
0*
#57104
b1000000 "
#57129
b1100000 "
#57254
b1100001 "
#57267
1*
#57268
b0 "
0*
#57354
b1000000 "
#57379
b1100000 "
#57504
b1100001 "
#57517
1*
#57518
b0 "
0*
#57604
b1000000 "
#57629
b1100000 "
#57754
b1100001 "
#57767
1*
#57768
b0 "
0*
#57854
b1000000 "
#57879
b1100000 "
#58004
b1100001 "
#58017
1*
#58018
b0 "
0*
#58104
b1000000 "
#58129
b1100000 "
#58254
b1100001 "
#58267
1*
#58268
b0 "
0*
#58354
b1000000 "
#58379
b1100000 "
#58504
b1100001 "
#58517
1*
#58518
b0 "
0*
#58604
b1000000 "
#58629
b1100000 "
#58754
b1100001 "
#58767
1*
#58768
b0 "
0*
#58854
b1000000 "
#58879
b1100000 "
#59004
b1100001 "
#59017
1*
#59018
b0 "
0*
#59104
b1000000 "
#59129
b1100000 "
#59254
b1100001 "
#59267
1*
#59268
b0 "
0*
#59354
b1000000 "
#59379
b1100000 "
#59504
b1100001 "
#59517
1*
#59518
b0 "
0*
#59604
b1000000 "
#59629
b1100000 "
#59754
b1100001 "
#59767
1*
#59768
b0 "
0*
#59854
b1000000 "
#59879
b1100000 "
#60004
b1100001 "
#60017
1*
#60018
b0 "
0*
#60104
b1000000 "
#60129
b1100000 "
#60254
b1100001 "
#60267
1*
#60268
b0 "
0*
#60354
b1000000 "
#60379
b1100000 "
#60504
b1100001 "
#60517
1*
#60518
b0 "
0*
#60604
b1000000 "
#60629
b1100000 "
#60754
b1100001 "
#60767
1*
#60768
b0 "
0*
#60854
b1000000 "
#60879
b1100000 "
#61004
b1100001 "
#61017
1*
#61018
b0 "
0*
#61104
b1000000 "
#61129
b1100000 "
#61254
b1100001 "
#61267
1*
#61268
b0 "
0*
#61354
b1000000 "
#61379
b1100000 "
#61504
b1100001 "
#61517
1*
#61518
b0 "
0*
#61604
b1000000 "
#61629
b1100000 "
#61754
b1100001 "
#61767
1*
#61768
b0 "
0*
#61854
b1000000 "
#61879
b1100000 "
#62004
b1100001 "
#62017
1*
#62018
b0 "
0*
#62104
b1000000 "
#62129
b1100000 "
#62254
b1100001 "
#62267
1*
#62268
b0 "
0*
#62354
b1000000 "
#62379
b1100000 "
#62504
b1100001 "
#62517
1*
#62518
b0 "
0*
#62604
b1000000 "
#62629
b1100000 "
#62754
b1100001 "
#62767
1*
#62768
b0 "
0*
#62854
b1000000 "
#62879
b1100000 "
#63004
b1100001 "
#63017
1*
#63018
b0 "
0*
#63104
b1000000 "
#63129
b1100000 "
#63254
b1100001 "
#63267
1*
#63268
b0 "
0*
#63354
b1000000 "
#63379
b1100000 "
#63504
b1100001 "
#63517
1*
#63518
b0 "
0*
#63604
b1000000 "
#63629
b1100000 "
#63754
b1100001 "
#63767
1*
#63768
b0 "
0*
#63854
b1000000 "
#63879
b1100000 "
#64004
b1100001 "
#64017
1*
#64018
b0 "
0*
#64104
b1000000 "
#64129
b1100000 "
#64254
b1100001 "
#64267
1*
#64268
b0 "
0*
#64354
b1000000 "
#64379
b1100000 "
#64504
b1100001 "
#64517
1*
#64518
b0 "
0*
#64604
b1000000 "
#64629
b1100000 "
#64754
b1100001 "
#64767
1*
#64768
b0 "
0*
#64854
b1000000 "
#64879
b1100000 "
#65004
b1100001 "
#65017
1*
#65018
b0 "
0*
#65104
b1000000 "
#65129
b1100000 "
#65254
b1100001 "
#65267
1*
#65268
b0 "
0*
#65354
b1000000 "
#65379
b1100000 "
#65504
b1100001 "
#65517
1*
#65518
b0 "
0*
