video_trans_eth_tx_uart_rx/.Xil/Vivado-4172-DESKTOP-B3RT09T/hw_ila_data_2/zip_work/waveform.vcd
$date
        2018-Apr-27 16:28:30
$end
$version
        Vivado v2017.4 (64-bit)
$end
$timescale
        1ps
$end
$scope module dut $end
$var reg 8 " dout [7:0] $end
$var reg 4 * phy_txd [3:0] $end
$var reg 1 . data_request $end
$var reg 1 / empty $end
$var reg 1 0 send_enale $end
$var reg 1 1 tx_ctrl $end
$var reg 1 2 _TRIGGER $end
$var reg 1 3 _WINDOW $end
$var reg 1 4 _GAP $end
$upscope $end
$enddefinitions $end
#0
$dumpvars
b1000 "
b0 *
0.
0/
00
01
02
13
04
$end
#32768
10
12
#32769
b101 *
11
#32784
b1101 *
#32785
b0 *
#32786
b11 *
#32787
b1100 *
#32788
b1001 *
#32789
b11 *
#32790
b10 *
#32791
b1110 *
#32792
b1 *
#32793
b1100 *
#32794
b1110 *
#32795
b1 *
#32796
b10 *
#32797
b0 *
#32798
b10 *
#32799
b1010 *
#32800
b1 *
#32801
b110 *
#32802
b0 *
#32803
b1110 *
#32804
b101 *
#32805
b1110 *
#32806
b0 *
#32807
b111 *
#32808
b1010 *
#32809
b1000 *
1.
#32810
b0 "
b0 *
0.
#32811
1.
00
#32812
b1000101 "
0.
#32813
b101 *
1.
#32814
b0 "
b100 *
0.
#32815
b0 *
1.
#32816
b101 "
0.
#32817
b101 *
1.
#32818
b1000000 "
b0 *
0.
#32819
1.
#32820
b1101 "
b100 *
0.
#32821
b1101 *
1.
#32822
b1111001 "
b0 *
0.
#32823
b1001 *
1.
#32824
b0 "
b111 *
0.
#32825
b0 *
1.
#32826
0.
#32827
1.
#32828
b10000000 "
0.
#32829
1.
#32830
b10001 "
b1000 *
0.
#32831
b1 *
1.
#32832
b10100110 "
0.
#32833
b110 *
1.
#32834
b11011110 "
b1010 *
0.
#32835
b1110 *
1.
#32836
b11000000 "
b1101 *
0.
#32837
b0 *
1.
#32838
b10101000 "
b1100 *
0.
#32839
b1000 *
1.
#32840
b0 "
b1010 *
0.
#32841
b0 *
1.
#32842
b11 "
0.
#32843
b11 *
1.
#32844
b11000000 "
b0 *
0.
#32845
1.
#32846
b10101000 "
b1100 *
0.
#32847
b1000 *
1.
#32848
b0 "
b1010 *
0.
#32849
b0 *
1.
#32850
b10 "
0.
#32851
b10 *
1.
#32852
b100000 "
b0 *
0.
#32853
1.
#32854
b101010 "
b10 *
0.
#32855
b1010 *
1.
#32856
b100000 "
b10 *
0.
#32857
b0 *
1.
#32858
b101010 "
b10 *
0.
#32859
b1010 *
1.
#32860
b101 "
b10 *
0.
#32861
b101 *
1.
#32862
b101100 "
b0 *
0.
#32863
b1100 *
1.
#32864
b11100111 "
b10 *
0.
#32865
b111 *
1.
#32866
b10011111 "
b1110 *
0.
#32867
b1111 *
1.
#32868
b1100001 "
b1001 *
0.
#32869
b1 *
1.
#32870
b110 *
0.
#32871
b1 *
1.
#32872
b110 *
0.
#32873
b1 *
1.
#32874
b110 *
0.
#32875
b1 *
1.
#32876
b110 *
0.
#32877
b1 *
1.
#32878
b110 *
0.
#32879
b1 *
1.
#32880
b110 *
0.
#32881
b1 *
1.
#32882
b110 *
0.
#32883
b1 *
1.
#32884
b110 *
0.
#32885
b1 *
1.
#32886
b110 *
0.
#32887
b1 *
1.
#32888
b110 *
0.
#32889
b1 *
1.
#32890
b110 *
0.
#32891
b1 *
1.
#32892
b110 *
0.
#32893
b1 *
1.
#32894
b110 *
0.
#32895
b1 *
1.
#32896
b110 *
0.
#32897
b1 *
1.
#32898
b110 *
0.
#32899
b1 *
1.
#32900
b110 *
0.
#32901
b1 *
1.
#32902
b110 *
0.
#32903
b1 *
1.
#32904
b110 *
0.
#32905
b1 *
1.
#32906
b110 *
0.
#32907
b1 *
1.
#32908
b110 *
0.
#32909
b1 *
1.
#32910
b110 *
0.
#32911
b1 *
1.
#32912
b110 *
0.
#32913
b1 *
1.
#32914
b110 *
0.
#32915
b1 *
1.
#32916
b110 *
0.
#32917
b1 *
1.
#32918
b110 *
0.
#32919
b1 *
1.
#32920
b110 *
0.
#32921
b1 *
1.
#32922
b110 *
0.
#32923
b1 *
1.
#32924
b110 *
0.
#32925
b1 *
1.
#32926
b110 *
0.
#32927
b1 *
1.
#32928
b110 *
0.
#32929
b1 *
1.
#32930
b110 *
0.
#32931
b1 *
1.
#32932
b110 *
0.
#32933
b1 *
1.
#32934
b110 *
0.
#32935
b1 *
1.
#32936
b110 *
0.
#32937
b1 *
1.
#32938
b110 *
0.
#32939
b1 *
1.
#32940
b110 *
0.
#32941
b1 *
1.
#32942
b110 *
0.
#32943
b1 *
1.
#32944
b110 *
0.
#32945
b1 *
1.
#32946
b110 *
0.
#32947
b1 *
1.
#32948
b110 *
0.
#32949
b1 *
1.
#32950
b110 *
0.
#32951
b1 *
1.
#32952
b110 *
0.
#32953
b1 *
1.
#32954
b110 *
0.
#32955
b1 *
1.
#32956
b110 *
0.
#32957
b1 *
1.
#32958
b110 *
0.
#32959
b1 *
1.
#32960
b110 *
0.
#32961
b1 *
1.
#32962
b110 *
0.
#32963
b1 *
1.
#32964
b110 *
0.
#32965
b1 *
1.
#32966
b110 *
0.
#32967
b1 *
1.
#32968
b110 *
0.
#32969
b1 *
1.
#32970
b110 *
0.
#32971
b1 *
1.
#32972
b110 *
0.
#32973
b1 *
1.
#32974
b110 *
0.
#32975
b1 *
1.
#32976
b110 *
0.
#32977
b1 *
1.
#32978
b110 *
0.
#32979
b1 *
1.
#32980
b110 *
0.
#32981
b1 *
1.
#32982
b110 *
0.
#32983
b1 *
1.
#32984
b110 *
0.
#32985
b1 *
1.
#32986
b110 *
0.
#32987
b1 *
1.
#32988
b110 *
0.
#32989
b1 *
1.
#32990
b110 *
0.
#32991
b1 *
1.
#32992
b110 *
0.
#32993
b1 *
1.
#32994
b110 *
0.
#32995
b1 *
1.
#32996
b110 *
0.
#32997
b1 *
1.
#32998
b110 *
0.
#32999
b1 *
1.
#33000
b110 *
0.
#33001
b1 *
1.
#33002
b110 *
0.
#33003
b1 *
1.
#33004
b110 *
0.
#33005
b1 *
1.
#33006
b110 *
0.
#33007
b1 *
1.
#33008
b110 *
0.
#33009
b1 *
1.
#33010
b110 *
0.
#33011
b1 *
1.
#33012
b110 *
0.
#33013
b1 *
1.
#33014
b110 *
0.
#33015
b1 *
1.
#33016
b110 *
0.
#33017
b1 *
1.
#33018
b110 *
0.
#33019
b1 *
1.
#33020
b110 *
0.
#33021
b1 *
1.
#33022
b110 *
0.
#33023
b1 *
1.
#33024
b110 *
0.
#33025
b1 *
1.
#33026
b110 *
0.
#33027
b1 *
1.
#33028
b110 *
0.
#33029
b1 *
1.
#33030
b110 *
0.
#33031
b1 *
1.
#33032
b110 *
0.
#33033
b1 *
1.
#33034
b110 *
0.
#33035
b1 *
1.
#33036
b110 *
0.
#33037
b1 *
1.
#33038
b110 *
0.
#33039
b1 *
1.
#33040
b110 *
0.
#33041
b1 *
1.
#33042
b110 *
0.
#33043
b1 *
1.
#33044
b110 *
0.
#33045
b1 *
1.
#33046
b110 *
0.
#33047
b1 *
1.
#33048
b110 *
0.
#33049
b1 *
1.
#33050
b110 *
0.
#33051
b1 *
1.
#33052
b110 *
0.
#33053
b1 *
1.
#33054
b110 *
0.
#33055
b1 *
1.
#33056
b110 *
0.
#33057
b1 *
1.
#33058
b110 *
0.
#33059
b1 *
1.
#33060
b110 *
0.
#33061
b1 *
1.
#33062
b110 *
0.
#33063
b1 *
1.
#33064
b110 *
0.
#33065
b1 *
1.
#33066
b110 *
0.
#33067
b1 *
1.
#33068
b110 *
0.
#33069
b1 *
1.
#33070
b110 *
0.
#33071
b1 *
1.
#33072
b110 *
0.
#33073
b1 *
1.
#33074
b110 *
0.
#33075
b1 *
1.
#33076
b110 *
0.
#33077
b1 *
1.
#33078
b110 *
0.
#33079
b1 *
1.
#33080
b110 *
0.
#33081
b1 *
1.
#33082
b110 *
0.
#33083
b1 *
1.
#33084
b110 *
0.
#33085
b1 *
1.
#33086
b110 *
0.
#33087
b1 *
1.
#33088
b110 *
0.
#33089
b1 *
1.
#33090
b110 *
0.
#33091
b1 *
1.
#33092
b110 *
0.
#33093
b1 *
1.
#33094
b110 *
0.
#33095
b1 *
1.
#33096
b110 *
0.
#33097
b1 *
1.
#33098
b110 *
0.
#33099
b1 *
1.
#33100
b110 *
0.
#33101
b1 *
1.
#33102
b110 *
0.
#33103
b1 *
1.
#33104
b110 *
0.
#33105
b1 *
1.
#33106
b110 *
0.
#33107
b1 *
1.
#33108
b110 *
0.
#33109
b1 *
1.
#33110
b110 *
0.
#33111
b1 *
1.
#33112
b110 *
0.
#33113
b1 *
1.
#33114
b110 *
0.
#33115
b1 *
1.
#33116
b110 *
0.
#33117
b1 *
1.
#33118
b110 *
0.
#33119
b1 *
1.
#33120
b110 *
0.
#33121
b1 *
1.
#33122
b110 *
0.
#33123
b1 *
1.
#33124
b110 *
0.
#33125
b1 *
1.
#33126
b110 *
0.
#33127
b1 *
1.
#33128
b110 *
0.
#33129
b1 *
1.
#33130
b110 *
0.
#33131
b1 *
1.
#33132
b110 *
0.
#33133
b1 *
1.
#33134
b110 *
0.
#33135
b1 *
1.
#33136
b110 *
0.
#33137
b1 *
1.
#33138
b110 *
0.
#33139
b1 *
1.
#33140
b110 *
0.
#33141
b1 *
1.
#33142
b110 *
0.
#33143
b1 *
1.
#33144
b110 *
0.
#33145
b1 *
1.
#33146
b110 *
0.
#33147
b1 *
1.
#33148
b110 *
0.
#33149
b1 *
1.
#33150
b110 *
0.
#33151
b1 *
1.
#33152
b110 *
0.
#33153
b1 *
1.
#33154
b110 *
0.
#33155
b1 *
1.
#33156
b110 *
0.
#33157
b1 *
1.
#33158
b110 *
0.
#33159
b1 *
1.
#33160
b110 *
0.
#33161
b1 *
1.
#33162
b110 *
0.
#33163
b1 *
1.
#33164
b110 *
0.
#33165
b1 *
1.
#33166
b110 *
0.
#33167
b1 *
1.
#33168
b110 *
0.
#33169
b1 *
1.
#33170
b110 *
0.
#33171
b1 *
1.
#33172
b110 *
0.
#33173
b1 *
1.
#33174
b110 *
0.
#33175
b1 *
1.
#33176
b110 *
0.
#33177
b1 *
1.
#33178
b110 *
0.
#33179
b1 *
1.
#33180
b110 *
0.
#33181
b1 *
1.
#33182
b110 *
0.
#33183
b1 *
1.
#33184
b110 *
0.
#33185
b1 *
1.
#33186
b110 *
0.
#33187
b1 *
1.
#33188
b110 *
0.
#33189
b1 *
1.
#33190
b110 *
0.
#33191
b1 *
1.
#33192
b110 *
0.
#33193
b1 *
1.
#33194
b110 *
0.
#33195
b1 *
1.
#33196
b110 *
0.
#33197
b1 *
1.
#33198
b110 *
0.
#33199
b1 *
1.
#33200
b110 *
0.
#33201
b1 *
1.
#33202
b110 *
0.
#33203
b1 *
1.
#33204
b110 *
0.
#33205
b1 *
1.
#33206
b110 *
0.
#33207
b1 *
1.
#33208
b110 *
0.
#33209
b1 *
1.
#33210
b110 *
0.
#33211
b1 *
1.
#33212
b110 *
0.
#33213
b1 *
1.
#33214
b110 *
0.
#33215
b1 *
1.
#33216
b110 *
0.
#33217
b1 *
1.
#33218
b110 *
0.
#33219
b1 *
1.
#33220
b110 *
0.
#33221
b1 *
1.
#33222
b110 *
0.
#33223
b1 *
1.
#33224
b110 *
0.
#33225
b1 *
1.
#33226
b110 *
0.
#33227
b1 *
1.
#33228
b110 *
0.
#33229
b1 *
1.
#33230
b110 *
0.
#33231
b1 *
1.
#33232
b110 *
0.
#33233
b1 *
1.
#33234
b110 *
0.
#33235
b1 *
1.
#33236
b110 *
0.
#33237
b1 *
1.
#33238
b110 *
0.
#33239
b1 *
1.
#33240
b110 *
0.
#33241
b1 *
1.
#33242
b110 *
0.
#33243
b1 *
1.
#33244
b110 *
0.
#33245
b1 *
1.
#33246
b110 *
0.
#33247
b1 *
1.
#33248
b110 *
0.
#33249
b1 *
1.
#33250
b110 *
0.
#33251
b1 *
1.
#33252
b110 *
0.
#33253
b1 *
1.
#33254
b110 *
0.
#33255
b1 *
1.
#33256
b110 *
0.
#33257
b1 *
1.
#33258
b110 *
0.
#33259
b1 *
1.
#33260
b110 *
0.
#33261
b1 *
1.
#33262
b110 *
0.
#33263
b1 *
1.
#33264
b110 *
0.
#33265
b1 *
1.
#33266
b110 *
0.
#33267
b1 *
1.
#33268
b110 *
0.
#33269
b1 *
1.
#33270
b110 *
0.
#33271
b1 *
1.
#33272
b110 *
0.
#33273
b1 *
1.
#33274
b110 *
0.
#33275
b1 *
1.
#33276
b110 *
0.
#33277
b1 *
1.
#33278
b110 *
0.
#33279
b1 *
1.
#33280
b110 *
0.
#33281
b1 *
1.
#33282
b110 *
0.
#33283
b1 *
1.
#33284
b110 *
0.
#33285
b1 *
1.
#33286
b110 *
0.
#33287
b1 *
1.
#33288
b110 *
0.
#33289
b1 *
1.
#33290
b110 *
0.
#33291
b1 *
1.
#33292
b110 *
0.
#33293
b1 *
1.
#33294
b110 *
0.
#33295
b1 *
1.
#33296
b110 *
0.
#33297
b1 *
1.
#33298
b110 *
0.
#33299
b1 *
1.
#33300
b110 *
0.
#33301
b1 *
1.
#33302
b110 *
0.
#33303
b1 *
1.
#33304
b110 *
0.
#33305
b1 *
1.
#33306
b110 *
0.
#33307
b1 *
1.
#33308
b110 *
0.
#33309
b1 *
1.
#33310
b110 *
0.
#33311
b1 *
1.
#33312
b110 *
0.
#33313
b1 *
1.
#33314
b110 *
0.
#33315
b1 *
1.
#33316
b110 *
0.
#33317
b1 *
1.
#33318
b110 *
0.
#33319
b1 *
1.
#33320
b110 *
0.
#33321
b1 *
1.
#33322
b110 *
0.
#33323
b1 *
1.
#33324
b110 *
0.
#33325
b1 *
1.
#33326
b110 *
0.
#33327
b1 *
1.
#33328
b110 *
0.
#33329
b1 *
1.
#33330
b110 *
0.
#33331
b1 *
1.
#33332
b110 *
0.
#33333
b1 *
1.
#33334
b110 *
0.
#33335
b1 *
1.
#33336
b110 *
0.
#33337
b1 *
1.
#33338
b110 *
0.
#33339
b1 *
1.
#33340
b110 *
0.
#33341
b1 *
1.
#33342
b110 *
0.
#33343
b1 *
1.
#33344
b110 *
0.
#33345
b1 *
1.
#33346
b110 *
0.
#33347
b1 *
1.
#33348
b110 *
0.
#33349
b1 *
1.
#33350
b110 *
0.
#33351
b1 *
1.
#33352
b110 *
0.
#33353
b1 *
1.
#33354
b110 *
0.
#33355
b1 *
1.
#33356
b110 *
0.
#33357
b1 *
1.
#33358
b110 *
0.
#33359
b1 *
1.
#33360
b110 *
0.
#33361
b1 *
1.
#33362
b110 *
0.
#33363
b1 *
1.
#33364
b110 *
0.
#33365
b1 *
1.
#33366
b110 *
0.
#33367
b1 *
1.
#33368
b110 *
0.
#33369
b1 *
1.
#33370
b110 *
0.
#33371
b1 *
1.
#33372
b110 *
0.
#33373
b1 *
1.
#33374
b110 *
0.
#33375
b1 *
1.
#33376
b110 *
0.
#33377
b1 *
1.
#33378
b110 *
0.
#33379
b1 *
1.
#33380
b110 *
0.
#33381
b1 *
1.
#33382
b110 *
0.
#33383
b1 *
1.
#33384
b110 *
0.
#33385
b1 *
1.
#33386
b110 *
0.
#33387
b1 *
1.
#33388
b110 *
0.
#33389
b1 *
1.
#33390
b110 *
0.
#33391
b1 *
1.
#33392
b110 *
0.
#33393
b1 *
1.
#33394
b110 *
0.
#33395
b1 *
1.
#33396
b110 *
0.
#33397
b1 *
1.
#33398
b110 *
0.
#33399
b1 *
1.
#33400
b110 *
0.
#33401
b1 *
1.
#33402
b110 *
0.
#33403
b1 *
1.
#33404
b110 *
0.
#33405
b1 *
1.
#33406
b110 *
0.
#33407
b1 *
1.
#33408
b110 *
0.
#33409
b1 *
1.
#33410
b110 *
0.
#33411
b1 *
1.
#33412
b110 *
0.
#33413
b1 *
1.
#33414
b110 *
0.
#33415
b1 *
1.
#33416
b110 *
0.
#33417
b1 *
1.
#33418
b110 *
0.
#33419
b1 *
1.
#33420
b110 *
0.
#33421
b1 *
1.
#33422
b110 *
0.
#33423
b1 *
1.
#33424
b110 *
0.
#33425
b1 *
1.
#33426
b110 *
0.
#33427
b1 *
1.
#33428
b110 *
0.
#33429
b1 *
1.
#33430
b110 *
0.
#33431
b1 *
1.
#33432
b110 *
0.
#33433
b1 *
1.
#33434
b110 *
0.
#33435
b1 *
1.
#33436
b110 *
0.
#33437
b1 *
1.
#33438
b110 *
0.
#33439
b1 *
1.
#33440
b110 *
0.
#33441
b1 *
1.
#33442
b110 *
0.
#33443
b1 *
1.
#33444
b110 *
0.
#33445
b1 *
1.
#33446
b110 *
0.
#33447
b1 *
1.
#33448
b110 *
0.
#33449
b1 *
1.
#33450
b110 *
0.
#33451
b1 *
1.
#33452
b110 *
0.
#33453
b1 *
1.
#33454
b110 *
0.
#33455
b1 *
1.
#33456
b110 *
0.
#33457
b1 *
1.
#33458
b110 *
0.
#33459
b1 *
1.
#33460
b110 *
0.
#33461
b1 *
1.
#33462
b110 *
0.
#33463
b1 *
1.
#33464
b110 *
0.
#33465
b1 *
1.
#33466
b110 *
0.
#33467
b1 *
1.
#33468
b110 *
0.
#33469
b1 *
1.
#33470
b110 *
0.
#33471
b1 *
1.
#33472
b110 *
0.
#33473
b1 *
1.
#33474
b110 *
0.
#33475
b1 *
1.
#33476
b110 *
0.
#33477
b1 *
1.
#33478
b110 *
0.
#33479
b1 *
1.
#33480
b110 *
0.
#33481
b1 *
1.
#33482
b110 *
0.
#33483
b1 *
1.
#33484
b110 *
0.
#33485
b1 *
1.
#33486
b110 *
0.
#33487
b1 *
1.
#33488
b110 *
0.
#33489
b1 *
1.
#33490
b110 *
0.
#33491
b1 *
1.
#33492
b110 *
0.
#33493
b1 *
1.
#33494
b110 *
0.
#33495
b1 *
1.
#33496
b110 *
0.
#33497
b1 *
1.
#33498
b110 *
0.
#33499
b1 *
1.
#33500
b110 *
0.
#33501
b1 *
1.
#33502
b110 *
0.
#33503
b1 *
1.
#33504
b110 *
0.
#33505
b1 *
1.
#33506
b110 *
0.
#33507
b1 *
1.
#33508
b110 *
0.
#33509
b1 *
1.
#33510
b110 *
0.
#33511
b1 *
1.
#33512
b110 *
0.
#33513
b1 *
1.
#33514
b110 *
0.
#33515
b1 *
1.
#33516
b110 *
0.
#33517
b1 *
1.
#33518
b110 *
0.
#33519
b1 *
1.
#33520
b110 *
0.
#33521
b1 *
1.
#33522
b110 *
0.
#33523
b1 *
1.
#33524
b110 *
0.
#33525
b1 *
1.
#33526
b110 *
0.
#33527
b1 *
1.
#33528
b110 *
0.
#33529
b1 *
1.
#33530
b110 *
0.
#33531
b1 *
1.
#33532
b110 *
0.
#33533
b1 *
1.
#33534
b110 *
0.
#33535
b1 *
1.
#33536
b110 *
0.
#33537
b1 *
1.
#33538
b110 *
0.
#33539
b1 *
1.
#33540
b110 *
0.
#33541
b1 *
1.
#33542
b110 *
0.
#33543
b1 *
1.
#33544
b110 *
0.
#33545
b1 *
1.
#33546
b110 *
0.
#33547
b1 *
1.
#33548
b110 *
0.
#33549
b1 *
1.
#33550
b110 *
0.
#33551
b1 *
1.
#33552
b110 *
0.
#33553
b1 *
1.
#33554
b110 *
0.
#33555
b1 *
1.
#33556
b110 *
0.
#33557
b1 *
1.
#33558
b110 *
0.
#33559
b1 *
1.
#33560
b110 *
0.
#33561
b1 *
1.
#33562
b110 *
0.
#33563
b1 *
1.
#33564
b110 *
0.
#33565
b1 *
1.
#33566
b110 *
0.
#33567
b1 *
1.
#33568
b110 *
0.
#33569
b1 *
1.
#33570
b110 *
0.
#33571
b1 *
1.
#33572
b110 *
0.
#33573
b1 *
1.
#33574
b110 *
0.
#33575
b1 *
1.
#33576
b110 *
0.
#33577
b1 *
1.
#33578
b110 *
0.
#33579
b1 *
1.
#33580
b110 *
0.
#33581
b1 *
1.
#33582
b110 *
0.
#33583
b1 *
1.
#33584
b110 *
0.
#33585
b1 *
1.
#33586
b110 *
0.
#33587
b1 *
1.
#33588
b110 *
0.
#33589
b1 *
1.
#33590
b110 *
0.
#33591
b1 *
1.
#33592
b110 *
0.
#33593
b1 *
1.
#33594
b110 *
0.
#33595
b1 *
1.
#33596
b110 *
0.
#33597
b1 *
1.
#33598
b110 *
0.
#33599
b1 *
1.
#33600
b110 *
0.
#33601
b1 *
1.
#33602
b110 *
0.
#33603
b1 *
1.
#33604
b110 *
0.
#33605
b1 *
1.
#33606
b110 *
0.
#33607
b1 *
1.
#33608
b110 *
0.
#33609
b1 *
1.
#33610
b110 *
0.
#33611
b1 *
1.
#33612
b110 *
0.
#33613
b1 *
1.
#33614
b110 *
0.
#33615
b1 *
1.
#33616
b110 *
0.
#33617
b1 *
1.
#33618
b110 *
0.
#33619
b1 *
1.
#33620
b110 *
0.
#33621
b1 *
1.
#33622
b110 *
0.
#33623
b1 *
1.
#33624
b110 *
0.
#33625
b1 *
1.
#33626
b110 *
0.
#33627
b1 *
1.
#33628
b110 *
0.
#33629
b1 *
1.
#33630
b110 *
0.
#33631
b1 *
1.
#33632
b110 *
0.
#33633
b1 *
1.
#33634
b110 *
0.
#33635
b1 *
1.
#33636
b110 *
0.
#33637
b1 *
1.
#33638
b110 *
0.
#33639
b1 *
1.
#33640
b110 *
0.
#33641
b1 *
1.
#33642
b110 *
0.
#33643
b1 *
1.
#33644
b110 *
0.
#33645
b1 *
1.
#33646
b110 *
0.
#33647
b1 *
1.
#33648
b110 *
0.
#33649
b1 *
1.
#33650
b110 *
0.
#33651
b1 *
1.
#33652
b110 *
0.
#33653
b1 *
1.
#33654
b110 *
0.
#33655
b1 *
1.
#33656
b110 *
0.
#33657
b1 *
1.
#33658
b110 *
0.
#33659
b1 *
1.
#33660
b110 *
0.
#33661
b1 *
1.
#33662
b110 *
0.
#33663
b1 *
1.
#33664
b110 *
0.
#33665
b1 *
1.
#33666
b110 *
0.
#33667
b1 *
1.
#33668
b110 *
0.
#33669
b1 *
1.
#33670
b110 *
0.
#33671
b1 *
1.
#33672
b110 *
0.
#33673
b1 *
1.
#33674
b110 *
0.
#33675
b1 *
1.
#33676
b110 *
0.
#33677
b1 *
1.
#33678
b110 *
0.
#33679
b1 *
1.
#33680
b110 *
0.
#33681
b1 *
1.
#33682
b110 *
0.
#33683
b1 *
1.
#33684
b110 *
0.
#33685
b1 *
1.
#33686
b110 *
0.
#33687
b1 *
1.
#33688
b110 *
0.
#33689
b1 *
1.
#33690
b110 *
0.
#33691
b1 *
1.
#33692
b110 *
0.
#33693
b1 *
1.
#33694
b110 *
0.
#33695
b1 *
1.
#33696
b110 *
0.
#33697
b1 *
1.
#33698
b110 *
0.
#33699
b1 *
1.
#33700
b110 *
0.
#33701
b1 *
1.
#33702
b110 *
0.
#33703
b1 *
1.
#33704
b110 *
0.
#33705
b1 *
1.
#33706
b110 *
0.
#33707
b1 *
1.
#33708
b110 *
0.
#33709
b1 *
1.
#33710
b110 *
0.
#33711
b1 *
1.
#33712
b110 *
0.
#33713
b1 *
1.
#33714
b110 *
0.
#33715
b1 *
1.
#33716
b110 *
0.
#33717
b1 *
1.
#33718
b110 *
0.
#33719
b1 *
1.
#33720
b110 *
0.
#33721
b1 *
1.
#33722
b110 *
0.
#33723
b1 *
1.
#33724
b110 *
0.
#33725
b1 *
1.
#33726
b110 *
0.
#33727
b1 *
1.
#33728
b110 *
0.
#33729
b1 *
1.
#33730
b110 *
0.
#33731
b1 *
1.
#33732
b110 *
0.
#33733
b1 *
1.
#33734
b110 *
0.
#33735
b1 *
1.
#33736
b110 *
0.
#33737
b1 *
1.
#33738
b110 *
0.
#33739
b1 *
1.
#33740
b110 *
0.
#33741
b1 *
1.
#33742
b110 *
0.
#33743
b1 *
1.
#33744
b110 *
0.
#33745
b1 *
1.
#33746
b110 *
0.
#33747
b1 *
1.
#33748
b110 *
0.
#33749
b1 *
1.
#33750
b110 *
0.
#33751
b1 *
1.
#33752
b110 *
0.
#33753
b1 *
1.
#33754
b110 *
0.
#33755
b1 *
1.
#33756
b110 *
0.
#33757
b1 *
1.
#33758
b110 *
0.
#33759
b1 *
1.
#33760
b110 *
0.
#33761
b1 *
1.
#33762
b110 *
0.
#33763
b1 *
1.
#33764
b110 *
0.
#33765
b1 *
1.
#33766
b110 *
0.
#33767
b1 *
1.
#33768
b110 *
0.
#33769
b1 *
1.
#33770
b110 *
0.
#33771
b1 *
1.
#33772
b110 *
0.
#33773
b1 *
1.
#33774
b110 *
0.
#33775
b1 *
1.
#33776
b110 *
0.
#33777
b1 *
1.
#33778
b110 *
0.
#33779
b1 *
1.
#33780
b110 *
0.
#33781
b1 *
1.
#33782
b110 *
0.
#33783
b1 *
1.
#33784
b110 *
0.
#33785
b1 *
1.
#33786
b110 *
0.
#33787
b1 *
1.
#33788
b110 *
0.
#33789
b1 *
1.
#33790
b110 *
0.
#33791
b1 *
1.
#33792
b110 *
0.
#33793
b1 *
1.
#33794
b110 *
0.
#33795
b1 *
1.
#33796
b110 *
0.
#33797
b1 *
1.
#33798
b110 *
0.
#33799
b1 *
1.
#33800
b110 *
0.
#33801
b1 *
1.
#33802
b110 *
0.
#33803
b1 *
1.
#33804
b110 *
0.
#33805
b1 *
1.
#33806
b110 *
0.
#33807
b1 *
1.
#33808
b110 *
0.
#33809
b1 *
1.
#33810
b110 *
0.
#33811
b1 *
1.
#33812
b110 *
0.
#33813
b1 *
1.
#33814
b110 *
0.
#33815
b1 *
1.
#33816
b110 *
0.
#33817
b1 *
1.
#33818
b110 *
0.
#33819
b1 *
1.
#33820
b110 *
0.
#33821
b1 *
1.
#33822
b110 *
0.
#33823
b1 *
1.
#33824
b110 *
0.
#33825
b1 *
1.
#33826
b110 *
0.
#33827
b1 *
1.
#33828
b110 *
0.
#33829
b1 *
1.
#33830
b110 *
0.
#33831
b1 *
1.
#33832
b110 *
0.
#33833
b1 *
1.
#33834
b110 *
0.
#33835
b1 *
1.
#33836
b110 *
0.
#33837
b1 *
1.
#33838
b110 *
0.
#33839
b1 *
1.
#33840
b110 *
0.
#33841
b1 *
1.
#33842
b110 *
0.
#33843
b1 *
1.
#33844
b110 *
0.
#33845
b1 *
1.
#33846
b110 *
0.
#33847
b1 *
1.
#33848
b110 *
0.
#33849
b1 *
1.
#33850
b110 *
0.
#33851
b1 *
1.
#33852
b110 *
0.
#33853
b1 *
1.
#33854
b110 *
0.
#33855
b1 *
1.
#33856
b110 *
0.
#33857
b1 *
1.
#33858
b110 *
0.
#33859
b1 *
1.
#33860
b110 *
0.
#33861
b1 *
1.
#33862
b110 *
0.
#33863
b1 *
1.
#33864
b110 *
0.
#33865
b1 *
1.
#33866
b110 *
0.
#33867
b1 *
1.
#33868
b110 *
0.
#33869
b1 *
1.
#33870
b110 *
0.
#33871
b1 *
1.
#33872
b110 *
0.
#33873
b1 *
1.
#33874
b110 *
0.
#33875
b1 *
1.
#33876
b110 *
0.
#33877
b1 *
1.
#33878
b110 *
0.
#33879
b1 *
1.
#33880
b110 *
0.
#33881
b1 *
1.
#33882
b110 *
0.
#33883
b1 *
1.
#33884
b110 *
0.
#33885
b1 *
1.
#33886
b110 *
0.
#33887
b1 *
1.
#33888
b110 *
0.
#33889
b1 *
1.
#33890
b110 *
0.
#33891
b1 *
1.
#33892
b110 *
0.
#33893
b1 *
1.
#33894
b110 *
0.
#33895
b1 *
1.
#33896
b110 *
0.
#33897
b1 *
1.
#33898
b110 *
0.
#33899
b1 *
1.
#33900
b110 *
0.
#33901
b1 *
1.
#33902
b110 *
0.
#33903
b1 *
1.
#33904
b110 *
0.
#33905
b1 *
1.
#33906
b110 *
0.
#33907
b1 *
1.
#33908
b110 *
0.
#33909
b1 *
1.
#33910
b110 *
0.
#33911
b1 *
1.
#33912
b110 *
0.
#33913
b1 *
1.
#33914
b110 *
0.
#33915
b1 *
1.
#33916
b110 *
0.
#33917
b1 *
1.
#33918
b110 *
0.
#33919
b1 *
1.
#33920
b110 *
0.
#33921
b1 *
1.
#33922
b110 *
0.
#33923
b1 *
1.
#33924
b110 *
0.
#33925
b1 *
1.
#33926
b110 *
0.
#33927
b1 *
1.
#33928
b110 *
0.
#33929
b1 *
1.
#33930
b110 *
0.
#33931
b1 *
1.
#33932
b110 *
0.
#33933
b1 *
1.
#33934
b110 *
0.
#33935
b1 *
1.
#33936
b110 *
0.
#33937
b1 *
1.
#33938
b110 *
0.
#33939
b1 *
1.
#33940
b110 *
0.
#33941
b1 *
1.
#33942
b110 *
0.
#33943
b1 *
1.
#33944
b110 *
0.
#33945
b1 *
1.
#33946
b110 *
0.
#33947
b1 *
1.
#33948
b110 *
0.
#33949
b1 *
1.
#33950
b110 *
0.
#33951
b1 *
1.
#33952
b110 *
0.
#33953
b1 *
1.
#33954
b110 *
0.
#33955
b1 *
1.
#33956
b110 *
0.
#33957
b1 *
1.
#33958
b110 *
0.
#33959
b1 *
1.
#33960
b110 *
0.
#33961
b1 *
1.
#33962
b110 *
0.
#33963
b1 *
1.
#33964
b110 *
0.
#33965
b1 *
1.
#33966
b110 *
0.
#33967
b1 *
1.
#33968
b110 *
0.
#33969
b1 *
1.
#33970
b110 *
0.
#33971
b1 *
1.
#33972
b110 *
0.
#33973
b1 *
1.
#33974
b110 *
0.
#33975
b1 *
1.
#33976
b110 *
0.
#33977
b1 *
1.
#33978
b110 *
0.
#33979
b1 *
1.
#33980
b110 *
0.
#33981
b1 *
1.
#33982
b110 *
0.
#33983
b1 *
1.
#33984
b110 *
0.
#33985
b1 *
1.
#33986
b110 *
0.
#33987
b1 *
1.
#33988
b110 *
0.
#33989
b1 *
1.
#33990
b110 *
0.
#33991
b1 *
1.
#33992
b110 *
0.
#33993
b1 *
1.
#33994
b110 *
0.
#33995
b1 *
1.
#33996
b110 *
0.
