video_trans_eth_tx_uart_rx/.Xil/Vivado-17380-DESKTOP-B3RT09T/hw_ila_data_1/zip_work/waveform.vcd
$date
        2018-Apr-26 11:33:01
$end
$version
        Vivado v2017.4 (64-bit)
$end
$timescale
        1ps
$end
$scope module dut $end
$var reg 8 " dout [7:0] $end
$var reg 1 * empty $end
$var reg 1 + prog_empty $end
$var reg 1 , _TRIGGER $end
$var reg 1 - _WINDOW $end
$var reg 1 . _GAP $end
$upscope $end
$enddefinitions $end
#0
$dumpvars
b11011100 "
1*
1+
0,
1-
0.
$end
#32768
b1000 "
0*
1,
#32780
1*
#32830
b0 "
0*
#32842
1*
#32893
b1000101 "
0*
#32905
1*
#32955
b0 "
0*
#32967
1*
#33018
0*
#33030
1*
#33080
b101100 "
0*
#33092
1*
#33143
b1110110 "
0*
#33155
1*
#33205
b110000 "
0*
#33217
1*
#33268
b0 "
0*
#33280
1*
#33330
0*
#33342
1*
#33393
b10000000 "
0*
#33405
1*
#33455
b10001 "
0*
#33467
1*
#33518
b1000011 "
0*
#33530
1*
#33580
b111011 "
0*
#33592
1*
#33643
b11000000 "
0*
#33655
1*
#33705
b10101000 "
0*
#33717
1*
#33768
b0 "
0*
#33780
1*
#33830
b11 "
0*
#33842
1*
#33893
b11000000 "
0*
#33905
1*
#33955
b10101000 "
0*
#33967
1*
#34018
b0 "
0*
#34030
1*
#34080
b10 "
0*
#34092
1*
#34143
b100000 "
0*
#34155
1*
#34205
b101010 "
0*
#34217
1*
#34268
b100000 "
0*
#34280
1*
#34330
b101010 "
0*
#34342
1*
#34393
b0 "
0*
#34405
1*
#34455
b11000 "
0*
#34467
1*
#34518
b111110 "
0*
#34530
1*
#34580
b1011100 "
0*
#34592
1*
#34643
b1101000 "
0*
#34655
1*
#34705
b1110100 "
0*
#34717
1*
#34768
0*
#34780
1*
#34830
b1110000 "
0*
#34842
1*
#34893
b111010 "
0*
#34905
1*
#34955
b101111 "
0*
#34967
1*
#35018
0*
#35030
1*
#35080
b1100101 "
0*
#35092
1*
#35143
b1101110 "
0*
#35155
1*
#35205
b101110 "
0*
#35217
1*
#35268
b1110101 "
0*
#35280
1*
#35330
b1110011 "
0*
#35342
1*
#35393
b1110010 "
0*
#35405
1*
#35455
b101110 "
0*
#35467
1*
#35518
b1100011 "
0*
#35530
1*
#35580
b1101110 "
0*
#35592
1*
#35643
b0 "
0*
#35655
1*
#35705
0*
#35717
1*
#35768
b11010110 "
0*
#35780
1*
#35830
b111001 "
0*
#35842
1*
#35893
b11111000 "
0*
#35905
1*
#35955
b10111010 "
0*
#35967
1*
